{
  "file_generated_by": "FlutterFire CLI",
  "purpose": "FirebaseAppID & ProjectID for this Firebase app in this directory",
  "GOOGLE_APP_ID": "1:515587034528:ios:e6152941c47dbc5c9768c5",
  "FIREBASE_PROJECT_ID": "chat-app-fb-e4521",
  "GCM_SENDER_ID": "515587034528"
}